<?xml version="1.0" encoding="utf-8"?>
<!-- Generator: Adobe Illustrator 21.0.0, SVG Export Plug-In . SVG Version: 6.00 Build 0)  -->
<svg version="1.1" id="Layer_2_1_" xmlns="http://www.w3.org/2000/svg" xmlns:xlink="http://www.w3.org/1999/xlink" x="0px" y="0px"
	 viewBox="0 0 300 300" style="enable-background:new 0 0 300 300;" xml:space="preserve">
<path d="M279.1,170.2c0.7,2,1.2,4.5,1.5,7.4c0.2,2.9-1,5.8-3.7,8.5c-1.2,1.2-2.3,2.4-3.3,3.5c-1,1.1-1.8,2-2.6,2.8
	c-1,1-1.8,1.7-2.6,2.2l-31.4-31.1c1.5-1.2,3.2-2.8,5-4.5c1.9-1.7,3.4-3.1,4.6-4.1c2.9-2.7,6.1-3.9,9.6-3.5c3.5,0.4,6.3,1.1,8.5,2.4
	c2.5,1.2,5.1,3.4,7.9,6.5C275.4,163.5,277.6,166.8,279.1,170.2L279.1,170.2L279.1,170.2z M149.3,251.3l4.8-4.8l9.2-9.3
	c3.7-3.7,7.8-7.8,12.2-12.4c4.4-4.6,8.9-9.1,13.3-13.5c10.6-10.6,22.6-22.4,35.9-35.5l31.1,31.1l-35.9,35.9L206.6,256l-12.2,12.2
	c-3.4,3.5-6.3,6.4-8.7,8.9c-2.3,2.4-3.6,3.8-3.9,4c-1.2,1-2.6,2-4.1,3.2c-1.5,1.1-2.9,2-4.5,2.8c-1.5,0.8-3.8,1.7-6.8,2.8
	c-3.1,1.1-6.3,2.2-9.5,3.1c-3.2,1-6.3,1.9-9.3,2.6c-2.9,0.8-5.2,1.3-6.7,1.5c-2.9,0.5-4.9,0.1-5.9-1.1c-1-1.2-1.2-3.4-0.7-6.3
	c0.2-1.5,0.7-3.7,1.5-6.6c0.7-3,1.6-6,2.6-9.1c1-3.1,1.9-6,2.8-8.7c0.9-2.8,1.6-4.6,2-5.6C144.8,256.5,146.8,253.7,149.3,251.3
	L149.3,251.3L149.3,251.3z M254.7,29.3c0-12.9-12.3-23.3-25.2-23.3H64.6C51.7,6,39.4,16.4,39.4,29.3v223.6
	c0,12.9,12.3,25.2,25.2,25.2h33.9l156.2-156.3L254.7,29.3L254.7,29.3z M142,189.7H82v-15.4H142V189.7z M142,154.7H82v-15.4H142
	V154.7z M212,119.7H82v-15.4H212V119.7z M212,84.7H82V69.2H212V84.7z"/>
</svg>
