
Bug:0003137

Changes: AlbumController.cs
AlbumDocuments.cshtml
UploadImage.cshtml

SP :GetStGalleryDocument.sql

//////////////////////////////////////////////////////////////////////////////////////////////////////////////////////////////////////////////////////////////////////


Bug:0003102

Changes: admin Resource file

href="/"

@Html.ActionLink("Back", "Dashboard", "Dashboard", new { noticetype ="public" }, new {@class="small-button blue"})

@Html.ActionLink(Resources.LatestUpdate.Back, "UpdateDetail", "LatestUpdate", new { area = "LatestNews" }, new { @class = "small-button blue" })  

//////////////////////////////////////////////////////////////////////////////////////////////////////////////////////////////////////////////////////////////////////
//////////////////////////////////////////////////////////////////////////////////////////////////////////////////////////////////////////////////////////////////////
/////////////////////////////////////////////////////////////////////////////////////////////////////////////////////////////////////////////////////////////////////
1) NoticeDetails.cshtml
2) PrivateNotice.cshtml
3) EditNews.cshtml
4) Lefsidebar/Index.cshtml
5) D:\New Network\evhp_secure\new one\evhp_secure\SBL.Web.Core\Areas\PublicEvent\Views\PublicEvent\EventWidget.cshtml
6) D:\New Network\evhp_secure\new one\evhp_secure\SBL.Web.Core\Areas\Secretary\Views\Secretary\SecretaryData.cshtml