<?xml version="1.0" encoding="utf-8"?>
<!-- Generator: Adobe Illustrator 21.0.0, SVG Export Plug-In . SVG Version: 6.00 Build 0)  -->
<svg version="1.1" id="Layer_1" xmlns="http://www.w3.org/2000/svg" xmlns:xlink="http://www.w3.org/1999/xlink" x="0px" y="0px"
	 viewBox="0 0 40 40" style="enable-background:new 0 0 40 40;" xml:space="preserve">
<style type="text/css">
	.st0{fill:#232323;}
</style>
<g>
	<path class="st0" d="M5.9,36.8C6.3,37.1,4.4,37,33,37c2.2,0,4-1.8,4-4v-3c0-0.5-0.4-1-1-1h-2.3V7.2c0-2.3-1.9-4.2-4.2-4.2H4
		C3.4,3,3,3.4,3,4v29c0,1.1,0.4,2.1,1.2,2.8C4.7,36.3,5.2,36.7,5.9,36.8L5.9,36.8z M35,33c0,1.1-0.9,2-2,2H10.4
		c0.3-0.6,0.5-1.3,0.5-2V33V31h24V33z M5,5h24.5c1.2,0,2.2,1,2.2,2.2V29H10c-0.6,0-1,0.4-1,1V33c0,1.8-2.1,2.7-3.4,1.5
		C5.2,34,5,33.5,5,33V5z"/>
	<path class="st0" d="M10.2,11h16.2c0.6,0,1-0.4,1-1c0-0.5-0.4-1-1-1H10.2c-0.6,0-1,0.4-1,1S9.7,11,10.2,11z"/>
	<path class="st0" d="M10.2,15.7h16.2c0.6,0,1-0.4,1-1s-0.4-1-1-1H10.2c-0.6,0-1,0.4-1,1C9.2,15.2,9.7,15.7,10.2,15.7z"/>
	<path class="st0" d="M10.2,20.3h16.2c0.6,0,1-0.4,1-1c0-0.5-0.4-1-1-1H10.2c-0.6,0-1,0.4-1,1C9.2,19.9,9.7,20.3,10.2,20.3z"/>
	<path class="st0" d="M10.2,25h16.2c0.6,0,1-0.4,1-1c0-0.5-0.4-1-1-1H10.2c-0.6,0-1,0.4-1,1C9.2,24.5,9.7,25,10.2,25z"/>
</g>
</svg>
