<?xml version="1.0" encoding="utf-8"?>
<!-- Generator: Adobe Illustrator 21.0.0, SVG Export Plug-In . SVG Version: 6.00 Build 0)  -->
<svg version="1.1" id="Layer_1" xmlns="http://www.w3.org/2000/svg" xmlns:xlink="http://www.w3.org/1999/xlink" x="0px" y="0px"
	 viewBox="0 0 40 40" style="enable-background:new 0 0 40 40;" xml:space="preserve">
<style type="text/css">
	.st0{fill:#232323;}
</style>
<path class="st0" d="M26.8,21.4H9.7c-0.6,0-1.1-0.5-1.1-1.1V14c0-0.6,0.5-1.1,1.1-1.1h20.5c0.6,0,1.1,0.5,1.1,1.1v3.2
	c0,0.6-0.5,1.1-1.1,1.1c-0.6,0-1.1-0.5-1.1-1.1V15H10.8v4.2h16c0.6,0,1.1,0.5,1.1,1.1C27.9,20.9,27.4,21.4,26.8,21.4L26.8,21.4z"/>
<path class="st0" d="M22.6,25.7H9.8c-0.6,0-1.1-0.5-1.1-1.1c0-0.6,0.5-1.1,1.1-1.1h12.8c0.6,0,1.1,0.5,1.1,1.1
	C23.6,25.2,23.2,25.7,22.6,25.7z"/>
<path class="st0" d="M18.4,29.9H9.8c-0.6,0-1.1-0.5-1.1-1.1c0-0.6,0.5-1.1,1.1-1.1h8.6c0.6,0,1.1,0.5,1.1,1.1
	C19.4,29.4,18.9,29.9,18.4,29.9z"/>
<path class="st0" d="M20.7,37c-0.3,0-0.6-0.1-0.8-0.3c-0.2-0.2-0.4-0.6-0.3-0.9l0.8-4.3c0-0.2,0.1-0.4,0.3-0.6l10.5-10.5
	c0.4-0.4,0.9-0.7,1.4-0.8c0.7-0.1,1.3,0.1,1.8,0.6l1.8,1.8c1,1,1,2.5,0,3.5L25.8,35.9c-0.2,0.2-0.4,0.3-0.6,0.3L20.9,37
	C20.9,37,20.8,37,20.7,37L20.7,37z M25,35.2L25,35.2L25,35.2z M22.5,32.2l-0.4,2.4l2.4-0.4l10.3-10.3c0.1-0.1,0.1-0.4,0-0.5L33,21.7
	c0,0-0.1,0.1-0.3,0.2L22.5,32.2z"/>
<path class="st0" d="M16.9,34.2h-10c-2.1,0-3.9-1.7-3.9-3.9V6.9C3,4.7,4.7,3,6.9,3h26.2C35.3,3,37,4.7,37,6.9v10.3
	c0,0.6-0.5,1.1-1.1,1.1s-1.1-0.5-1.1-1.1V6.9c0-1-0.8-1.8-1.8-1.8H6.9c-1,0-1.8,0.8-1.8,1.8v23.4c0,1,0.8,1.8,1.8,1.8h10
	c0.6,0,1.1,0.5,1.1,1.1S17.5,34.2,16.9,34.2z"/>
<path class="st0" d="M35.9,10.1H4.1C3.5,10.1,3,9.6,3,9C3,8.4,3.5,8,4.1,8h31.9C36.5,8,37,8.4,37,9C37,9.6,36.5,10.1,35.9,10.1z"/>
</svg>
