<?xml version="1.0" encoding="utf-8"?>
<!-- Generator: Adobe Illustrator 21.0.0, SVG Export Plug-In . SVG Version: 6.00 Build 0)  -->
<svg version="1.1" baseProfile="tiny" xmlns="http://www.w3.org/2000/svg" xmlns:xlink="http://www.w3.org/1999/xlink" x="0px"
	 y="0px" viewBox="0 0 300 300" xml:space="preserve">
<g id="_x31_" display="none">
	<path display="inline" d="M127,166.3h50V183h-50V166.3z"/>
	<path display="inline" d="M240.5,183h-46.9v8.3c0,4.6-3.7,8.3-8.3,8.3h-66.7c-4.6,0-8.3-3.7-8.3-8.3V183H63.5
		c-10.8,0-20.3-6.9-23.7-17.1L9.8,76v182c0,13.8,11.2,25,25,25h234.4c13.8,0,25-11.2,25-25V76l-30,89.9
		C260.8,176.1,251.3,183,240.5,183z"/>
	<path display="inline" d="M185.3,33h-66.7c-13.8,0-25,11.2-25,25v8.3H24.1l31.4,94.3c1.1,3.4,4.3,5.7,7.9,5.7h46.9V158
		c0-4.6,3.7-8.3,8.3-8.3h66.7c4.6,0,8.3,3.7,8.3,8.3v8.3h46.9c3.6,0,6.8-2.3,7.9-5.7l31.4-94.3h-69.6V58
		C210.3,44.2,199.1,33,185.3,33z M110.3,66.3V58c0-4.6,3.7-8.3,8.3-8.3h66.7c4.6,0,8.3,3.7,8.3,8.3v8.3H110.3z"/>
</g>
<g id="Layer_2" display="none">
	<g display="inline">
		<g>
			<path d="M278.3,276.7h-5.7V112.3c0-3.1-2.5-5.7-5.7-5.7h-34c-3.1,0-5.7,2.5-5.7,5.7v164.3h-22.7v-96.3c0-3.1-2.5-5.7-5.7-5.7h-34
				c-3.1,0-5.7,2.5-5.7,5.7v96.3h-22.7v-119c0-3.1-2.5-5.7-5.7-5.7H97c-3.1,0-5.7,2.5-5.7,5.7v119H68.7v-62.3c0-3.1-2.5-5.7-5.7-5.7
				H29c-3.1,0-5.7,2.5-5.7,5.7v62.3h-5.7c-3.1,0-5.7,2.5-5.7,5.7s2.5,5.7,5.7,5.7H29h34h34h34h34h34h34h34h11.3
				c3.1,0,5.7-2.5,5.7-5.7S281.5,276.7,278.3,276.7z"/>
		</g>
	</g>
	<g display="inline">
		<g>
			<path d="M250,16c-12.5,0-22.7,10.2-22.7,22.7c0,4.2,1.2,8.1,3.2,11.4l-37.1,37.1c-3.4-2-7.3-3.2-11.4-3.2
				c-7.1,0-13.4,3.4-17.5,8.5l-27.8-7.9c0-0.2,0.1-0.4,0.1-0.5c0-12.5-10.2-22.7-22.7-22.7S91.3,71.5,91.3,84c0,3.3,0.7,6.4,2,9.2
				l-35.4,28.3c-3.5-2.2-7.5-3.5-11.9-3.5c-12.5,0-22.7,10.2-22.7,22.7c0,12.5,10.2,22.7,22.7,22.7s22.7-10.2,22.7-22.7
				c0-4-1.1-7.7-2.9-10.9l34.7-27.7c3.8,2.9,8.5,4.6,13.6,4.6c8.3,0,15.5-4.5,19.5-11.2l26.3,7.5c-0.2,1.2-0.4,2.5-0.4,3.7
				c0,12.5,10.2,22.7,22.7,22.7s22.7-10.2,22.7-22.7c0-4.2-1.2-8.1-3.2-11.4l37.1-37.1c3.4,2,7.2,3.2,11.4,3.2
				c12.5,0,22.7-10.2,22.7-22.7C272.7,26.2,262.5,16,250,16z"/>
		</g>
	</g>
</g>
<g id="Layer_3" display="none">
	<g display="inline">
		<g>
			<path d="M146.8,163.6l79.7-79.7v-7.8h-59.1c-4.7,0-8.4-3.8-8.4-8.4V8H31.3c-4.7,0-8.4,3.8-8.4,8.4v228.4h153v16.9v9
				c0,14,11.4,25.3,25.3,25.3s25.3-11.4,25.3-25.3v-67.5l-20,20l-46.3,17.9c-11.5,2.7-20.7-1.2-26.7-8.7c-4.9-6.1-6.7-13.6-4.6-22.6
				L146.8,163.6z M122.8,191.7l-34.3,33.7c-1.6,1.6-3.8,2.5-6,2.5s-4.3-0.8-6-2.5l-16.9-16.9c-3.3-3.3-3.3-8.6,0-11.9
				c3.3-3.3,8.6-3.3,11.9,0l10.9,10.9l28.3-27.8c3.3-3.3,8.6-3.3,11.9,0S126.1,188.4,122.8,191.7z M122.8,141.1l-34.3,33.7
				c-1.6,1.6-3.8,2.5-6,2.5s-4.3-0.8-6-2.5L59.7,158c-3.3-3.3-3.3-8.6,0-11.9c3.3-3.3,8.6-3.3,11.9,0l10.9,10.9l28.3-27.8
				c3.3-3.3,8.6-3.3,11.9,0C126.1,132.5,126.1,137.8,122.8,141.1z M122.8,90.5l-34.3,33.7c-1.6,1.6-3.8,2.5-6,2.5s-4.3-0.8-6-2.5
				l-16.9-16.9c-3.3-3.3-3.3-8.6,0-11.9c3.3-3.3,8.6-3.3,11.9,0l10.9,10.9l28.3-27.8c3.3-3.3,8.6-3.3,11.9,0
				C126.1,81.8,126.1,87.2,122.8,90.5z"/>
		</g>
	</g>
	<g display="inline">
		<g>
			<path d="M289.1,92.9L277.1,81c-6.3-6.3-17.6-6.3-23.9,0l-14.4,14.4l35.8,35.8l14.4-14.4C295.6,110.2,295.6,99.5,289.1,92.9z"/>
		</g>
	</g>
	<g display="inline">
		<g>
			<path d="M158,181.6l-12.8,33.2c-1.4,6.1,4,11.5,10.1,10.1l33.2-12.8L158,181.6z"/>
		</g>
	</g>
	<g display="inline">
		<g>
			<polygon points="226.9,107.3 167.3,167 203.1,202.8 262.7,143.1 			"/>
		</g>
	</g>
	<g display="inline">
		<g>
			<polygon points="175.9,12.9 175.9,59.2 221.6,59.2 			"/>
		</g>
	</g>
	<g display="inline">
		<g>
			<path d="M159,270.7v-9H14.4c-4.7,0-8.4,4.3-8.4,9v8.4c0,9.3,7.6,16.9,16.9,16.9h144.8C162.3,288.9,159,280.2,159,270.7z"/>
		</g>
	</g>
</g>
<g id="Layer_4" display="none">
	<g id="surface1" display="inline">
		<path d="M14.4,292h151.9c4.6,0,8.4-3.8,8.4-8.4v-8.9c0-9.3-7.5-16.8-16.8-16.8v-10c0-13.3-10.8-24.1-24.1-24.1H46.8
			c-13.3,0-24.1,10.8-24.1,24.1v10c-9.3,0-16.8,7.5-16.8,16.8v8.9C6,288.2,9.8,292,14.4,292z"/>
		<path d="M110.9,190.5c5.6,7.4,16.1,8.9,23.5,3.3c7.4-5.6,8.9-16.1,3.3-23.5l-50.4-66.9c-5.6-7.4-16.1-8.9-23.5-3.3
			c-7.4,5.6-8.9,16.1-3.3,23.5L110.9,190.5z"/>
		<path d="M231.3,99.8c5.6,7.4,16.1,8.9,23.5,3.3c7.4-5.6,8.9-16.1,3.3-23.5l-50.4-66.9c-5.6-7.4-16.1-8.9-23.5-3.3
			c-7.4,5.6-8.9,16.1-3.3,23.5L231.3,99.8z"/>
		<path d="M194.6,148.4c12.4-9.3,21.7-20.9,27.5-33.1l-58.7-77.9c-13.3,2.2-27,8-39.4,17.3c-12.4,9.3-21.7,20.9-27.5,33.1l58.7,77.9
			C168.5,163.5,182.2,157.8,194.6,148.4z"/>
		<path d="M217.2,150.6c-3.9,4-8,7.8-12.5,11.2c-4.5,3.4-9.3,6.3-14.2,9l10.9,14.5l26.8-20.2L217.2,150.6z"/>
		<path d="M238.2,178.5l-26.8,20.2l50.4,66.9c5.6,7.4,16.1,8.9,23.5,3.3c7.4-5.6,8.9-16.1,3.3-23.5L238.2,178.5z"/>
	</g>
</g>
<g id="Layer_5" display="none">
	<path display="inline" d="M6.1,150.5C6.1,230.2,70.9,295,150.5,295c79.7,0,144.5-64.8,144.5-144.5S230.2,6.1,150.5,6.1
		C70.9,6.1,6.1,70.9,6.1,150.5z M150.5,45.7c57.8,0,104.8,47,104.8,104.8c0,21.7-6.7,42-18,58.7L91.8,63.8
		C108.6,52.4,128.8,45.7,150.5,45.7z M209.3,237.3c-16.8,11.4-37,18-58.7,18c-57.8,0-104.8-47-104.8-104.8c0-21.7,6.7-42,18-58.7
		L209.3,237.3z"/>
</g>
<g id="Layer_6" display="none">
	<g display="inline">
		<g id="Layer_1_64_">
			<g>
				<path d="M139.8,145.8c0,3.7,3,6.7,6.7,6.7s6.7-3,6.7-6.7c0-7.8,2.8-15.4,7.8-21.3c11.2-13.3,19.6-27.6,24.9-42.7
					c0.7-2,0.4-4.3-0.8-6.1c-1.3-1.8-3.3-2.8-5.4-2.8h-66.1c-2.2,0-4.2,1-5.4,2.8c-1.2,1.8-1.6,4-0.8,6.1
					c5.3,15.1,13.7,29.5,24.9,42.7C137.1,130.5,139.8,138,139.8,145.8z"/>
				<path d="M153.2,172.5c0-3.7-3-6.7-6.7-6.7s-6.7,3-6.7,6.7c0,9.6-5.7,19.1-16.2,26.8c-22.3,16.5-39,34.3-49.6,53.1
					c-1.2,2.1-1.1,4.6,0.1,6.6c1.2,2.1,3.4,3.3,5.7,3.3h133.2c2.4,0,4.6-1.3,5.7-3.3c1.2-2,1.2-4.6,0-6.6
					c-10.6-18.8-27.3-36.7-49.6-53.1C158.9,191.6,153.2,182.1,153.2,172.5z"/>
				<path d="M263,272.4h-4c-4.6-51.8-34.9-91.6-58.5-119.9c23.6-28.3,53.9-68,58.5-119.9h4c7.4,0,13.3-6,13.3-13.3
					c0-7.4-6-13.3-13.3-13.3H30c-7.4,0-13.3,6-13.3,13.3c0,7.4,6,13.3,13.3,13.3h4c4.6,51.8,34.9,91.6,58.5,119.9
					c-23.6,28.3-53.9,68-58.5,119.9h-4c-7.4,0-13.3,6-13.3,13.3c0,7.4,6,13.3,13.3,13.3h16.7h199.8H263c7.4,0,13.3-6,13.3-13.3
					C276.3,278.3,270.4,272.4,263,272.4z M60.6,272.4c5-46.8,35.4-82.9,58.2-109.8l1.2-1.4c4.2-5,4.2-12.2,0-17.2l-1.2-1.4
					c-22.7-26.9-53.2-63-58.2-109.8h171.7c-5,46.8-35.5,82.9-58.2,109.8l-1.2,1.4c-4.2,5-4.2,12.2,0,17.2l1.2,1.4
					c22.7,26.9,53.2,63,58.2,109.8L60.6,272.4z"/>
			</g>
		</g>
	</g>
</g>
<g id="Layer_7" display="none">
	<g display="inline">
		<g>
			<path d="M246.6,217.3c9.4-7.8,15.3-19.6,15.3-32.7c0-23.5-19.1-42.6-42.6-42.6c-23.5,0-42.6,19.1-42.6,42.6
				c0,13.1,6,24.9,15.3,32.7c-22.7,10.4-38.4,33.3-38.4,59.8c0,4.4,3.5,7.9,7.9,7.9h115.5c4.4,0,7.9-3.5,7.9-7.9
				C285,250.6,269.2,227.7,246.6,217.3z"/>
		</g>
	</g>
	<g display="inline">
		<g>
			<path d="M107.9,90.2c9.4-7.8,15.3-19.6,15.3-32.7c0-23.5-19.1-42.6-42.6-42.6c-23.5,0-42.6,19.1-42.6,42.6
				c0,13.1,6,24.9,15.3,32.7C30.8,100.6,15,123.5,15,150c0,4.4,3.5,7.9,7.9,7.9h115.5c4.4,0,7.9-3.5,7.9-7.9
				C146.4,123.5,130.6,100.6,107.9,90.2z"/>
		</g>
	</g>
	<g display="inline">
		<g>
			<path d="M282.7,55.4l-38.1-38.1c-3.1-3.1-8.1-3.1-11.2,0c-3.1,3.1-3.1,8.1,0,11.2L258,53.1h-81.9c-4.4,0-7.9,3.5-7.9,7.9
				c0,4.4,3.5,7.9,7.9,7.9H258l-24.6,24.6c-3.1,3.1-3.1,8.1,0,11.2c1.5,1.5,3.6,2.3,5.6,2.3c2,0,4-0.8,5.6-2.3l38.1-38.1
				C285.8,63.5,285.8,58.5,282.7,55.4z"/>
		</g>
	</g>
	<g display="inline">
		<g>
			<path d="M123.9,231.1H42l24.6-24.6c3.1-3.1,3.1-8.1,0-11.2c-3.1-3.1-8.1-3.1-11.2,0l-38.1,38.1c-3.1,3.1-3.1,8.1,0,11.2
				l38.1,38.1C57,284.2,59,285,61,285c2,0,4-0.8,5.6-2.3c3.1-3.1,3.1-8.1,0-11.2L42,246.9h81.9c4.4,0,7.9-3.5,7.9-7.9
				C131.8,234.6,128.3,231.1,123.9,231.1z"/>
		</g>
	</g>
</g>
<g id="Layer_8">
	<g>
		<g>
			<path d="M175.3,262H9c0,18.2,14.8,33,33,33h146.2C180.3,286.2,175.3,274.7,175.3,262z"/>
		</g>
	</g>
	<g>
		<g>
			<path d="M249.7,13H50.3c-13.7,0-24.8,11.1-24.8,24.8v207.6h158.1c4.6,0,8.3,3.7,8.3,8.3v8.3c0,18.2,14.8,33,33,33s33-14.8,33-33
				V80.2V21.3v-7.4C255.3,13.3,252.5,13,249.7,13z M66.8,63.7h33c4.6,0,8.3,3.7,8.3,8.3s-3.7,8.3-8.3,8.3h-33
				c-4.6,0-8.3-3.7-8.3-8.3S62.3,63.7,66.8,63.7z M66.8,113.2h33c4.6,0,8.3,3.7,8.3,8.3s-3.7,8.3-8.3,8.3h-33
				c-4.6,0-8.3-3.7-8.3-8.3S62.3,113.2,66.8,113.2z M66.8,162.8h49.6c4.6,0,9.4,3.7,9.4,8.3c0,4.6-4.8,8.3-9.4,8.3H66.8
				c-4.6,0-8.3-3.7-8.3-8.3S62.3,162.8,66.8,162.8z M216.6,228.9H66.8c-4.6,0-8.3-3.7-8.3-8.3c0-4.6,3.7-8.3,8.3-8.3h149.8
				c4.6,0,8.3,3.7,8.3,8.3S221.2,228.9,216.6,228.9z M208.4,133.4v54.2c0,3-1.7,5.8-4.4,7.3c-1.2,0.7-2.6,1-3.9,1
				c-1.6,0-3.2-0.5-4.6-1.4L175.3,181l-20.2,13.5c-2.5,1.7-5.8,1.8-8.5,0.4c-2.7-1.4-4.4-4.2-4.4-7.3v-54.2
				c-10.1-9.1-16.5-22.1-16.5-36.7c0-27.3,22.2-49.6,49.6-49.6s49.6,22.2,49.6,49.6C224.9,111.3,218.5,124.3,208.4,133.4z"/>
		</g>
	</g>
	<g>
		<g>
			<path d="M175.3,146.3c-5.8,0-11.3-1.2-16.5-3v28.9l11.9-8c2.8-1.9,6.4-1.9,9.2,0l11.9,8v-28.9
				C186.7,145.1,181.2,146.3,175.3,146.3z"/>
		</g>
	</g>
	<g>
		<g>
			<path d="M175.3,63.7c-18.2,0-33,14.8-33,33s14.8,33,33,33s33-14.8,33-33S193.6,63.7,175.3,63.7z"/>
		</g>
	</g>
	<g>
		<g>
			<path d="M274.5,22.6v57.6h8.3c4.6,0,8.3-3.7,8.3-8.3V55.4C291,42,284.4,30.1,274.5,22.6z"/>
		</g>
	</g>
</g>
</svg>
