<?xml version="1.0" encoding="utf-8"?>
<!-- Generator: Adobe Illustrator 21.0.0, SVG Export Plug-In . SVG Version: 6.00 Build 0)  -->
<svg version="1.1" baseProfile="tiny" xmlns="http://www.w3.org/2000/svg" xmlns:xlink="http://www.w3.org/1999/xlink" x="0px"
	 y="0px" viewBox="0 0 300 300" xml:space="preserve">
<g id="_x31_" display="none">
	<path display="inline" d="M127,166.3h50V183h-50V166.3z"/>
	<path display="inline" d="M240.5,183h-46.9v8.3c0,4.6-3.7,8.3-8.3,8.3h-66.7c-4.6,0-8.3-3.7-8.3-8.3V183H63.5
		c-10.8,0-20.3-6.9-23.7-17.1L9.8,76v182c0,13.8,11.2,25,25,25h234.4c13.8,0,25-11.2,25-25V76l-30,89.9
		C260.8,176.1,251.3,183,240.5,183z"/>
	<path display="inline" d="M185.3,33h-66.7c-13.8,0-25,11.2-25,25v8.3H24.1l31.4,94.3c1.1,3.4,4.3,5.7,7.9,5.7h46.9V158
		c0-4.6,3.7-8.3,8.3-8.3h66.7c4.6,0,8.3,3.7,8.3,8.3v8.3h46.9c3.6,0,6.8-2.3,7.9-5.7l31.4-94.3h-69.6V58
		C210.3,44.2,199.1,33,185.3,33z M110.3,66.3V58c0-4.6,3.7-8.3,8.3-8.3h66.7c4.6,0,8.3,3.7,8.3,8.3v8.3H110.3z"/>
</g>
<g id="Layer_2" display="none">
	<g display="inline">
		<g>
			<path d="M278.3,276.7h-5.7V112.3c0-3.1-2.5-5.7-5.7-5.7h-34c-3.1,0-5.7,2.5-5.7,5.7v164.3h-22.7v-96.3c0-3.1-2.5-5.7-5.7-5.7h-34
				c-3.1,0-5.7,2.5-5.7,5.7v96.3h-22.7v-119c0-3.1-2.5-5.7-5.7-5.7H97c-3.1,0-5.7,2.5-5.7,5.7v119H68.7v-62.3c0-3.1-2.5-5.7-5.7-5.7
				H29c-3.1,0-5.7,2.5-5.7,5.7v62.3h-5.7c-3.1,0-5.7,2.5-5.7,5.7s2.5,5.7,5.7,5.7H29h34h34h34h34h34h34h34h11.3
				c3.1,0,5.7-2.5,5.7-5.7S281.5,276.7,278.3,276.7z"/>
		</g>
	</g>
	<g display="inline">
		<g>
			<path d="M250,16c-12.5,0-22.7,10.2-22.7,22.7c0,4.2,1.2,8.1,3.2,11.4l-37.1,37.1c-3.4-2-7.3-3.2-11.4-3.2
				c-7.1,0-13.4,3.4-17.5,8.5l-27.8-7.9c0-0.2,0.1-0.4,0.1-0.5c0-12.5-10.2-22.7-22.7-22.7S91.3,71.5,91.3,84c0,3.3,0.7,6.4,2,9.2
				l-35.4,28.3c-3.5-2.2-7.5-3.5-11.9-3.5c-12.5,0-22.7,10.2-22.7,22.7c0,12.5,10.2,22.7,22.7,22.7s22.7-10.2,22.7-22.7
				c0-4-1.1-7.7-2.9-10.9l34.7-27.7c3.8,2.9,8.5,4.6,13.6,4.6c8.3,0,15.5-4.5,19.5-11.2l26.3,7.5c-0.2,1.2-0.4,2.5-0.4,3.7
				c0,12.5,10.2,22.7,22.7,22.7s22.7-10.2,22.7-22.7c0-4.2-1.2-8.1-3.2-11.4l37.1-37.1c3.4,2,7.2,3.2,11.4,3.2
				c12.5,0,22.7-10.2,22.7-22.7C272.7,26.2,262.5,16,250,16z"/>
		</g>
	</g>
</g>
<g id="Layer_3" display="none">
	<g display="inline">
		<g>
			<path d="M146.8,163.6l79.7-79.7v-7.8h-59.1c-4.7,0-8.4-3.8-8.4-8.4V8H31.3c-4.7,0-8.4,3.8-8.4,8.4v228.4h153v16.9v9
				c0,14,11.4,25.3,25.3,25.3s25.3-11.4,25.3-25.3v-67.5l-20,20l-46.3,17.9c-11.5,2.7-20.7-1.2-26.7-8.7c-4.9-6.1-6.7-13.6-4.6-22.6
				L146.8,163.6z M122.8,191.7l-34.3,33.7c-1.6,1.6-3.8,2.5-6,2.5s-4.3-0.8-6-2.5l-16.9-16.9c-3.3-3.3-3.3-8.6,0-11.9
				c3.3-3.3,8.6-3.3,11.9,0l10.9,10.9l28.3-27.8c3.3-3.3,8.6-3.3,11.9,0S126.1,188.4,122.8,191.7z M122.8,141.1l-34.3,33.7
				c-1.6,1.6-3.8,2.5-6,2.5s-4.3-0.8-6-2.5L59.7,158c-3.3-3.3-3.3-8.6,0-11.9c3.3-3.3,8.6-3.3,11.9,0l10.9,10.9l28.3-27.8
				c3.3-3.3,8.6-3.3,11.9,0C126.1,132.5,126.1,137.8,122.8,141.1z M122.8,90.5l-34.3,33.7c-1.6,1.6-3.8,2.5-6,2.5s-4.3-0.8-6-2.5
				l-16.9-16.9c-3.3-3.3-3.3-8.6,0-11.9c3.3-3.3,8.6-3.3,11.9,0l10.9,10.9l28.3-27.8c3.3-3.3,8.6-3.3,11.9,0
				C126.1,81.8,126.1,87.2,122.8,90.5z"/>
		</g>
	</g>
	<g display="inline">
		<g>
			<path d="M289.1,92.9L277.1,81c-6.3-6.3-17.6-6.3-23.9,0l-14.4,14.4l35.8,35.8l14.4-14.4C295.6,110.2,295.6,99.5,289.1,92.9z"/>
		</g>
	</g>
	<g display="inline">
		<g>
			<path d="M158,181.6l-12.8,33.2c-1.4,6.1,4,11.5,10.1,10.1l33.2-12.8L158,181.6z"/>
		</g>
	</g>
	<g display="inline">
		<g>
			<polygon points="226.9,107.3 167.3,167 203.1,202.8 262.7,143.1 			"/>
		</g>
	</g>
	<g display="inline">
		<g>
			<polygon points="175.9,12.9 175.9,59.2 221.6,59.2 			"/>
		</g>
	</g>
	<g display="inline">
		<g>
			<path d="M159,270.7v-9H14.4c-4.7,0-8.4,4.3-8.4,9v8.4c0,9.3,7.6,16.9,16.9,16.9h144.8C162.3,288.9,159,280.2,159,270.7z"/>
		</g>
	</g>
</g>
<g id="Layer_4" display="none">
	<g id="surface1" display="inline">
		<path d="M14.4,292h151.9c4.6,0,8.4-3.8,8.4-8.4v-8.9c0-9.3-7.5-16.8-16.8-16.8v-10c0-13.3-10.8-24.1-24.1-24.1H46.8
			c-13.3,0-24.1,10.8-24.1,24.1v10c-9.3,0-16.8,7.5-16.8,16.8v8.9C6,288.2,9.8,292,14.4,292z"/>
		<path d="M110.9,190.5c5.6,7.4,16.1,8.9,23.5,3.3c7.4-5.6,8.9-16.1,3.3-23.5l-50.4-66.9c-5.6-7.4-16.1-8.9-23.5-3.3
			c-7.4,5.6-8.9,16.1-3.3,23.5L110.9,190.5z"/>
		<path d="M231.3,99.8c5.6,7.4,16.1,8.9,23.5,3.3c7.4-5.6,8.9-16.1,3.3-23.5l-50.4-66.9c-5.6-7.4-16.1-8.9-23.5-3.3
			c-7.4,5.6-8.9,16.1-3.3,23.5L231.3,99.8z"/>
		<path d="M194.6,148.4c12.4-9.3,21.7-20.9,27.5-33.1l-58.7-77.9c-13.3,2.2-27,8-39.4,17.3c-12.4,9.3-21.7,20.9-27.5,33.1l58.7,77.9
			C168.5,163.5,182.2,157.8,194.6,148.4z"/>
		<path d="M217.2,150.6c-3.9,4-8,7.8-12.5,11.2c-4.5,3.4-9.3,6.3-14.2,9l10.9,14.5l26.8-20.2L217.2,150.6z"/>
		<path d="M238.2,178.5l-26.8,20.2l50.4,66.9c5.6,7.4,16.1,8.9,23.5,3.3c7.4-5.6,8.9-16.1,3.3-23.5L238.2,178.5z"/>
	</g>
</g>
<g id="Layer_5" display="none">
	<path display="inline" d="M6.1,150.5C6.1,230.2,70.9,295,150.5,295c79.7,0,144.5-64.8,144.5-144.5S230.2,6.1,150.5,6.1
		C70.9,6.1,6.1,70.9,6.1,150.5z M150.5,45.7c57.8,0,104.8,47,104.8,104.8c0,21.7-6.7,42-18,58.7L91.8,63.8
		C108.6,52.4,128.8,45.7,150.5,45.7z M209.3,237.3c-16.8,11.4-37,18-58.7,18c-57.8,0-104.8-47-104.8-104.8c0-21.7,6.7-42,18-58.7
		L209.3,237.3z"/>
</g>
<g id="Layer_6" display="none">
	<g display="inline">
		<g id="Layer_1_64_">
			<g>
				<path d="M139.8,145.8c0,3.7,3,6.7,6.7,6.7s6.7-3,6.7-6.7c0-7.8,2.8-15.4,7.8-21.3c11.2-13.3,19.6-27.6,24.9-42.7
					c0.7-2,0.4-4.3-0.8-6.1c-1.3-1.8-3.3-2.8-5.4-2.8h-66.1c-2.2,0-4.2,1-5.4,2.8c-1.2,1.8-1.6,4-0.8,6.1
					c5.3,15.1,13.7,29.5,24.9,42.7C137.1,130.5,139.8,138,139.8,145.8z"/>
				<path d="M153.2,172.5c0-3.7-3-6.7-6.7-6.7s-6.7,3-6.7,6.7c0,9.6-5.7,19.1-16.2,26.8c-22.3,16.5-39,34.3-49.6,53.1
					c-1.2,2.1-1.1,4.6,0.1,6.6c1.2,2.1,3.4,3.3,5.7,3.3h133.2c2.4,0,4.6-1.3,5.7-3.3c1.2-2,1.2-4.6,0-6.6
					c-10.6-18.8-27.3-36.7-49.6-53.1C158.9,191.6,153.2,182.1,153.2,172.5z"/>
				<path d="M263,272.4h-4c-4.6-51.8-34.9-91.6-58.5-119.9c23.6-28.3,53.9-68,58.5-119.9h4c7.4,0,13.3-6,13.3-13.3
					c0-7.4-6-13.3-13.3-13.3H30c-7.4,0-13.3,6-13.3,13.3c0,7.4,6,13.3,13.3,13.3h4c4.6,51.8,34.9,91.6,58.5,119.9
					c-23.6,28.3-53.9,68-58.5,119.9h-4c-7.4,0-13.3,6-13.3,13.3c0,7.4,6,13.3,13.3,13.3h16.7h199.8H263c7.4,0,13.3-6,13.3-13.3
					C276.3,278.3,270.4,272.4,263,272.4z M60.6,272.4c5-46.8,35.4-82.9,58.2-109.8l1.2-1.4c4.2-5,4.2-12.2,0-17.2l-1.2-1.4
					c-22.7-26.9-53.2-63-58.2-109.8h171.7c-5,46.8-35.5,82.9-58.2,109.8l-1.2,1.4c-4.2,5-4.2,12.2,0,17.2l1.2,1.4
					c22.7,26.9,53.2,63,58.2,109.8L60.6,272.4z"/>
			</g>
		</g>
	</g>
</g>
<g id="Layer_7" display="none">
	<g display="inline">
		<g>
			<path d="M246.6,217.3c9.4-7.8,15.3-19.6,15.3-32.7c0-23.5-19.1-42.6-42.6-42.6c-23.5,0-42.6,19.1-42.6,42.6
				c0,13.1,6,24.9,15.3,32.7c-22.7,10.4-38.4,33.3-38.4,59.8c0,4.4,3.5,7.9,7.9,7.9h115.5c4.4,0,7.9-3.5,7.9-7.9
				C285,250.6,269.2,227.7,246.6,217.3z"/>
		</g>
	</g>
	<g display="inline">
		<g>
			<path d="M107.9,90.2c9.4-7.8,15.3-19.6,15.3-32.7c0-23.5-19.1-42.6-42.6-42.6c-23.5,0-42.6,19.1-42.6,42.6
				c0,13.1,6,24.9,15.3,32.7C30.8,100.6,15,123.5,15,150c0,4.4,3.5,7.9,7.9,7.9h115.5c4.4,0,7.9-3.5,7.9-7.9
				C146.4,123.5,130.6,100.6,107.9,90.2z"/>
		</g>
	</g>
	<g display="inline">
		<g>
			<path d="M282.7,55.4l-38.1-38.1c-3.1-3.1-8.1-3.1-11.2,0c-3.1,3.1-3.1,8.1,0,11.2L258,53.1h-81.9c-4.4,0-7.9,3.5-7.9,7.9
				c0,4.4,3.5,7.9,7.9,7.9H258l-24.6,24.6c-3.1,3.1-3.1,8.1,0,11.2c1.5,1.5,3.6,2.3,5.6,2.3c2,0,4-0.8,5.6-2.3l38.1-38.1
				C285.8,63.5,285.8,58.5,282.7,55.4z"/>
		</g>
	</g>
	<g display="inline">
		<g>
			<path d="M123.9,231.1H42l24.6-24.6c3.1-3.1,3.1-8.1,0-11.2c-3.1-3.1-8.1-3.1-11.2,0l-38.1,38.1c-3.1,3.1-3.1,8.1,0,11.2
				l38.1,38.1C57,284.2,59,285,61,285c2,0,4-0.8,5.6-2.3c3.1-3.1,3.1-8.1,0-11.2L42,246.9h81.9c4.4,0,7.9-3.5,7.9-7.9
				C131.8,234.6,128.3,231.1,123.9,231.1z"/>
		</g>
	</g>
</g>
<g id="Layer_8" display="none">
	<g display="inline">
		<g>
			<path d="M175.3,262H9c0,18.2,14.8,33,33,33h146.2C180.3,286.2,175.3,274.7,175.3,262z"/>
		</g>
	</g>
	<g display="inline">
		<g>
			<path d="M249.7,13H50.3c-13.7,0-24.8,11.1-24.8,24.8v207.6h158.1c4.6,0,8.3,3.7,8.3,8.3v8.3c0,18.2,14.8,33,33,33s33-14.8,33-33
				V80.2V21.3v-7.4C255.3,13.3,252.5,13,249.7,13z M66.8,63.7h33c4.6,0,8.3,3.7,8.3,8.3s-3.7,8.3-8.3,8.3h-33
				c-4.6,0-8.3-3.7-8.3-8.3S62.3,63.7,66.8,63.7z M66.8,113.2h33c4.6,0,8.3,3.7,8.3,8.3s-3.7,8.3-8.3,8.3h-33
				c-4.6,0-8.3-3.7-8.3-8.3S62.3,113.2,66.8,113.2z M66.8,162.8h49.6c4.6,0,9.4,3.7,9.4,8.3c0,4.6-4.8,8.3-9.4,8.3H66.8
				c-4.6,0-8.3-3.7-8.3-8.3S62.3,162.8,66.8,162.8z M216.6,228.9H66.8c-4.6,0-8.3-3.7-8.3-8.3c0-4.6,3.7-8.3,8.3-8.3h149.8
				c4.6,0,8.3,3.7,8.3,8.3S221.2,228.9,216.6,228.9z M208.4,133.4v54.2c0,3-1.7,5.8-4.4,7.3c-1.2,0.7-2.6,1-3.9,1
				c-1.6,0-3.2-0.5-4.6-1.4L175.3,181l-20.2,13.5c-2.5,1.7-5.8,1.8-8.5,0.4c-2.7-1.4-4.4-4.2-4.4-7.3v-54.2
				c-10.1-9.1-16.5-22.1-16.5-36.7c0-27.3,22.2-49.6,49.6-49.6s49.6,22.2,49.6,49.6C224.9,111.3,218.5,124.3,208.4,133.4z"/>
		</g>
	</g>
	<g display="inline">
		<g>
			<path d="M175.3,146.3c-5.8,0-11.3-1.2-16.5-3v28.9l11.9-8c2.8-1.9,6.4-1.9,9.2,0l11.9,8v-28.9
				C186.7,145.1,181.2,146.3,175.3,146.3z"/>
		</g>
	</g>
	<g display="inline">
		<g>
			<path d="M175.3,63.7c-18.2,0-33,14.8-33,33s14.8,33,33,33s33-14.8,33-33S193.6,63.7,175.3,63.7z"/>
		</g>
	</g>
	<g display="inline">
		<g>
			<path d="M274.5,22.6v57.6h8.3c4.6,0,8.3-3.7,8.3-8.3V55.4C291,42,284.4,30.1,274.5,22.6z"/>
		</g>
	</g>
</g>
<g id="Layer_9" display="none">
	<g display="inline">
		<path d="M152.1,234.4c-20.2-0.2-35.3-0.7-50.4-2.3c-6.2-0.7-12.5-1.7-18.6-2.8c-1.8-0.3-3.5-1.4-5-2.4c-2-1.3-2.8-3.4-2.3-5.8
			c2.2-11.2,4.3-22.4,6.8-33.4c1.6-7,6-11.9,13-14.4c9.5-3.3,19.3-5.5,29-7.8c1.7-0.4,3.4-0.9,5-1.4c2.2-0.7,2.7-1.6,2.7-3.9
			c0-3.1-0.1-6.3,0-9.4c0-1.1-0.4-1.8-1.2-2.5c-7.1-6.3-11.9-13.9-14-23.2c-0.4-1.7-0.6-3.5-1.1-5.2c-0.1-0.6-0.5-1.4-1-1.6
			c-2.2-0.9-3.1-2.9-3.4-4.9c-0.4-2.4-0.7-4.8-0.6-7.2c0.1-7.3,0.6-14.6,2.4-21.7c2.3-9.2,7.8-15.5,16.9-18.4
			c8.3-2.7,16.9-3.8,25.6-3.1c3.9,0.3,7.4,1.8,10.1,4.7c1.7,1.8,3.5,2.5,6,2.5c9.4,0,15.3,5.4,15.9,14.9c0.5,7.9,0.2,15.8,0.1,23.7
			c0,2.4-0.7,4.6-3.7,5c-0.3,0.1-0.7,1-0.8,1.6c-0.6,4-1,8-1.6,12c-1,6.6-4.2,12-8.7,16.7c-1,1.1-1.6,2.2-1.6,3.7
			c0.1,3.7,0.1,7.3,0.1,11c0,2.8,1.6,4.3,4.2,5.2c9,3.1,17.9,6.2,26.9,9.4c3.4,1.2,6.7,2.6,10.2,3.8c5.4,1.9,8.3,6,9.2,11.4
			c1.7,10.9,3.2,21.9,4.7,32.9c0.5,3.6-1,6.1-4.6,7c-4.4,1.1-8.8,1.9-13.3,2.5C188.4,233.5,167.8,234.5,152.1,234.4z M163.5,175.7
			c-2,3-3.9,5.8-5.7,8.7c-0.3,0.4-0.2,1.1-0.1,1.6c1,4.1,2.1,8.1,3.1,12.2c0.7,2.7,1.4,5.4,2.1,8.1c0.1,0,0.2,0,0.3,0
			c3-8.1,6-16.1,9-24.2C169.4,179.8,166.5,177.8,163.5,175.7z M142.4,175.2c-2.7,2.2-5.3,4.2-7.7,6.2c-0.3,0.3-0.4,1.1-0.2,1.6
			c2.8,7.5,5.6,14.9,8.5,22.3c0.1,0.3,0.3,0.5,0.6,1c1.6-7.2,3.2-14.1,4.8-20.9c0.1-0.4,0-1-0.2-1.3
			C146.3,181.2,144.4,178.4,142.4,175.2z"/>
		<path d="M291,148.3c-0.1,22.8-5.5,44.3-15.9,64.6c-1.2,2.4-2.8,4.1-5.6,4.1c-4.8,0.1-7.7-4.4-5.8-8.8c2.7-6.2,5.6-12.5,7.8-18.8
			c3.2-8.9,4.8-18.2,5.7-27.7c0.7-8,0.8-16,0.1-24.1c-1.2-12.8-4.1-25.1-9-37c-7.9-19-19.6-35.1-35.2-48.5
			c-16.9-14.4-36.1-24-57.9-28.1c-37-7-71.1,0.4-101.4,22.9c-25.2,18.7-41.2,43.7-48.3,74.3c-3.1,13.6-4.1,27.3-2.4,41.1
			c4.6,39.2,23.2,70.2,55.6,92.8c15.2,10.5,32,17.2,50.3,20.1c35.8,5.6,68.3-2.3,97.5-23.7c2.8-2.1,6.8-1.5,8.8,1.3
			c2.1,2.8,1.4,6.3-1.6,8.5c-16.7,12.3-35.1,20.8-55.5,25c-15.8,3.3-31.7,3.8-47.7,1.5c-35-5.1-64.1-21-87.3-47.6
			c-16.1-18.5-26.5-39.9-31.4-63.9c-2.9-14.2-3.6-28.7-2-43.1c4-35.3,19.1-65.1,45.3-89.2c19-17.5,41.3-28.7,66.6-33.9
			c15.9-3.3,31.9-3.8,47.9-1.4c32.3,4.7,59.7,18.8,82.3,42.2c17.2,17.9,28.8,39,34.9,63.2C289.7,125.8,291,137.2,291,148.3z"/>
		<path d="M195.7,89.2c3.5,0,6.6-0.2,9.6,0.1c2.1,0.2,4,1.1,5.4,2.9c0.5,0.6,1.6,0.9,2.4,1.1c0.7,0.2,1.6,0.1,2.3,0.2
			c4.7,0.7,7.4,3.3,7.7,8c0.3,4.5,0.3,9.1,0.3,13.7c0,1.6,0,3.5-2.4,3.8c-0.2,0-0.5,0.8-0.5,1.3c-0.4,2.6-0.7,5.3-1.2,7.9
			c-0.6,3.5-2.4,6.4-4.8,9c-0.5,0.5-0.9,1.3-0.9,2c-0.2,2.1-0.2,4.2-0.2,6.3c0,2,0.7,2.8,2.6,3.4c6.9,2.4,13.8,4.8,20.6,7.3
			c0.5,0.2,1.1,0.5,1.6,0.7c3.2,1.2,4.9,3.6,5.4,7c0.8,6.1,1.7,12.3,2.5,18.4c0.5,3.6-0.3,4.7-3.9,5.3c-4.5,0.8-9.1,1.5-13.9,2.3
			c-1.7-10.6-6.5-18.8-17.1-22.5c0.9-2.3,1.7-4.4,2.5-6.5c0.3-0.8,0.3-1.3-0.5-1.9c-1.2-0.9-2.3-2-3.6-3.1c-1.2,1.4-2.4,2.7-3.5,4.1
			c-0.2,0.3-0.1,0.9-0.1,1.3c0.3,1.4,0.7,2.7,1.1,4.5c-3.2-1-6-2-8.7-2.9c-0.1-0.2-0.2-0.3-0.1-0.4c0.9-1.5,0.4-2.6-0.8-3.6
			c-0.8-0.7-1.5-1.6-2-2.2c-1.6,1.3-3,2.5-4.7,3.9c-3-0.8-6.4-1.7-9.9-2.8c-2-0.6-3.2-4.6-2-6.2c0.2-0.3,0.7-0.4,1.1-0.5
			c2.6-0.6,5.3-1.3,7.9-1.9c1.5-0.4,2.3-1.2,2.2-2.9c-0.1-1.7,0.1-3.4-0.1-5c-0.1-0.6-0.5-1.3-0.9-1.7c-0.8-0.6-1.1-1.2-0.7-2.2
			c4.6-11.3,6.5-23.1,7.1-35.1C195.9,98.1,195.7,93.8,195.7,89.2z"/>
		<path d="M107,155.9c-0.9,1.1-1.9,2-2.7,3.1c-1.3,2-3.5,2-5.4,2.5c-0.3,0.1-0.8-0.3-1.1-0.7c-1.4-1.5-2.7-3-4.1-4.6
			c-1.6,1.2-3.1,2.4-4.6,3.6c0.7,1.7,1.3,3.4,2,5.2c-0.5,0.3-0.9,0.6-1.4,0.9c-3.6,2.6-7.2,5-10.7,7.8c-3.7,3-5.6,7.2-6.9,11.7
			c-0.4,1.4-0.7,2.7-1.1,4.3c-4.5-0.7-8.9-1.4-13.3-2.3c-2-0.4-2.9-2-2.8-3.9c0.1-2.1,0.3-4.2,0.7-6.2c0.9-4.5,1.9-8.9,2.9-13.4
			c1.1-4.8,3.9-8.2,8.8-9.6c5.5-1.6,11-3.1,16.5-4.5c3.7-1,4.2-1.7,4.4-5.6c0.1-2.6-0.4-4.6-2.4-6.5c-4-3.8-6.5-8.5-7-14
			c-0.1-1.1-0.4-2-1.6-2.5c-0.5-0.3-1-1-1.1-1.6c-0.3-2.1-0.7-4.3-0.6-6.4c0.2-3.7,0.6-7.5,1.4-11.2c1.2-5.5,4.7-9.3,9.9-11.4
			c5-2,10.2-2.3,15.6-1.8c-0.1,2.8-0.3,5.6-0.5,8.4c-0.3,8.3,0.1,16.5,2.4,24.5c1.4,5,3.8,9.5,6.7,13.8c0.7,1.2,0.9,2.2,0.8,3.5
			c-0.2,2.2-0.2,4.4-0.2,6.6c0,1.4,0.6,2.4,2,2.9c2.3,0.8,4.7,1.5,7,2.4c0.7,0.3,1.8,0.1,1.8,1.6c-0.1,2.6-0.5,3.5-2,4
			s-3.2,0.7-4.7,1c-1.5,0.3-3.2,1.1-4.6,0.9C109.6,158.3,108.4,156.9,107,155.9z"/>
	</g>
</g>
<g id="Layer_10" display="none">
	<g display="inline">
		<g>
			<path d="M252.8,48.2C225.6,21,189.5,6,151,6S76.4,21,49.2,48.2C22,75.4,7,111.5,7,150s15,74.6,42.2,101.8
				C76.4,279,112.5,294,151,294s74.6-15,101.8-42.2C280,224.6,295,188.5,295,150S280,75.4,252.8,48.2z M215.2,142.6L203,124
				l-41,26.3v71.2h-16.9v-71.2l-41-26.3l-12.2,18.7L70.1,92.8l54.4,0l-11.2,17l40.2,25.8l40.2-25.8l-11.2-17l54.4,0L215.2,142.6z"/>
		</g>
	</g>
</g>
<g id="Layer_11" display="none">
	<g display="inline">
		<g transform="translate(0.000000,511.000000) scale(0.100000,-0.100000)">
			<path d="M1417.6,5042.9c-105.1-10.9-275.9-50.1-301.9-68.8c-9.1-7.3-6.6-33.2,33.2-360.5c23.6-194.4,42.9-364.1,42.9-378
				c0-37.4-23.6-56.1-44.7-34.4c-13.3,12.7-17.5,30.2-100.2,388.9c-40.5,174.5-74.3,318.2-76.1,319.4c-3,3.6-78.5-42.9-137.7-84.5
				c-65.8-47.1-154-130.4-204.1-191.4c-125.6-155.8-195.6-327.9-216.2-528.4c-10.9-107.5-35.6-156.4-88.8-176.3
				c-73.1-27.8-74.3-30.8-74.3-212.6c0-137.7,0.6-144.9,13.9-167.9c18.1-32.6,65.8-57.4,111.7-57.4c30.2,0,36.2-2.4,78.5-33.8
				C513,3414.4,660.4,3342,754,3310.6c135.3-45.3,298.9-79.7,483.1-101.5c128-14.5,451.1-14.5,582.7,0
				c349.6,39.3,625,128.6,800.7,259.1c26.6,19.9,35,22.9,64,22.9c45.9,0,93,24.8,111.7,58c13.3,22.3,13.9,29.6,13.9,167.3
				c0,181.7-1.2,184.8-74.3,212.6c-53.1,19.9-77.9,68.2-88.8,175.7c-13.9,131-42.9,233.7-97.2,342.4
				c-89.4,179.9-226.4,324.9-412.4,436.6c-25.4,15.1-47.7,27.2-48.9,26c-1.2-1.2-36.2-150.4-77.9-331.5
				c-41.7-181.2-80.3-340.6-85.8-354.5c-10.3-27.8-25.4-36.2-44.7-26c-19.9,10.9-21.1-1.8,58,639.5c15.1,121.4,15.7,129.8,6.1,137.1
				c-16.3,11.5-142.5,44.7-220.4,57.4C1643.5,5044.7,1489.5,5050.8,1417.6,5042.9z"/>
			<path d="M386.3,3326.8c-3.6-63.4,2.4-182.4,9.7-189.6c1.8-1.8,50.7-7.2,108.1-12.1c58-4.8,110.5-10.3,117.7-11.5
				c10.3-2.4,15.1-12.7,26-58.6c7.9-30.2,21.7-76.1,31.4-100.8c9.7-25.4,17.5-48.9,17.5-53.1c0-3.6-39.3-40.5-87.6-81.5
				c-48.3-40.5-87.6-77.3-87.6-80.9c0-7.3,52.5-95.4,76.7-128c41.7-55.6,88.8-109.9,96-109.9c4.8,0,50.7,26,102,57.4
				c51.9,31.4,96.6,57.4,100.2,57.4s26-15.7,49.5-35.6c24.1-19.3,64-48.9,89.4-65.8l46.5-30.8l-14.5-59.2
				c-33.8-142.5-39.8-171.5-36.8-174.5c16.9-16.9,237.3-93,269.9-93c8.4,0,21.1,24.1,56.8,106.9l45.3,107.5h115.9
				c70,0,116.5-2.4,119-6c2.4-3,23.6-51.9,47.1-108.7l42.9-102.6l20.5,1.8c46.5,3.6,228.2,61.6,255.4,81.5
				c9.7,7.3,8.4,15.1-14.5,112.3c-13.3,58-24.1,109.9-24.1,115.9c0,6.6,10.3,17.5,26,27.2c42.3,26,77.3,51.3,120.2,85.1l40.5,32.6
				l99-60.4c54.3-33.8,101.5-61,105.1-61c10.9,0,79.1,83.9,129.2,159.4c26,39.3,47.7,73.6,47.7,75.5c0,2.4-39.3,38-87,79.1
				c-48.3,41.7-87.6,79.7-87.6,85.1c-0.6,4.8,8.5,32,19.9,60.4c10.9,27.8,26.6,74.3,33.8,103.8c11.5,42.9,16.3,53.1,26.6,55.6
				c7.2,1.2,59.2,5.4,115.3,9.7c56.8,3.6,105.1,9.1,107.5,11.5c9.1,7.9,16.9,128,12.7,197.4l-3.6,67.6l-47.1-29.6
				c-137.7-86.3-343-163-549.5-205.3c-48.3-10.3-93.6-18.1-100.8-18.1c-7.9,0-13.9-3.6-13.9-8.4c0-4.8-12.7-33.8-28.4-64.6
				c-22.9-46.5-37.4-65.8-79.7-108.1c-58.6-58-108.1-89.4-178.7-112.9c-44.1-15.1-56.1-16.3-141.9-16.3c-85.8,0-97.8,1.2-141.9,16.3
				c-70.6,23.6-120.2,54.9-178.7,112.9c-42.3,42.3-56.8,61.6-79.7,108.1c-15.7,30.8-28.4,59.8-28.4,63.4c0,4.8-22.9,11.5-61.6,18.1
				c-242.1,41.1-465.5,123.8-633.4,234.9L390,3395L386.3,3326.8z"/>
		</g>
	</g>
</g>
<g id="Layer_12">
	<g>
		<g>
			<path d="M148,35.2c-33.4,0-60.5,27.2-60.5,60.5v29.4c0,33.4,27.2,60.5,60.5,60.5c23.1,0,43.3-13.1,53.5-32.2
				c-7.5,2.9-15.5,4.5-23.8,4.5h-17.6c-5,0-9.1-4.1-9.1-9.1c0-5,4.1-9.1,9.1-9.1h17.6c11.4,0,22.3-4.1,30.8-11.4
				c0.1-1.1,0.1-2.2,0.1-3.3V95.7C208.5,62.4,181.4,35.2,148,35.2z"/>
		</g>
	</g>
	<g>
		<g>
			<path d="M233.3,86.2h-1.1C227.4,43.9,191.5,11,148,11S68.6,43.9,63.8,86.2h-1.1c-13.2,0-24,10.8-24,24s10.8,24,24,24h9.6
				c5,0,9.1-4.1,9.1-9.1V95.7c0-36.7,29.9-66.6,66.6-66.6s66.6,29.9,66.6,66.6v26.4c-1.9,2.3-3.9,4.4-6.1,6.3c-0.5,9-3,17.5-7,25
				c10.3-4,19.5-10.6,26.7-19.3h5.1c13.2,0,24-10.8,24-24S246.5,86.2,233.3,86.2z"/>
		</g>
	</g>
	<g>
		<g>
			<path d="M286.7,281.1l-27.2-84.4c-0.7-2.2-2.2-4-4.3-5.2l-41.7-23c-12.5,18.8-32.9,32-56.5,34.7V293h121
				C284.3,293,288.6,287,286.7,281.1z"/>
		</g>
	</g>
	<g>
		<g>
			<path d="M82.4,168.6l-41.7,23c-2,1.1-3.5,3-4.3,5.2L9.3,281.1C7.4,287,11.8,293,17.9,293h121v-89.7
				C115.4,200.6,95,187.4,82.4,168.6z"/>
		</g>
	</g>
</g>
</svg>
